1,1,pera,Glupa slika,1.1.2017.,null,false
2,1,korisnik,Koliko si los,1.1.2017.,1.1.2017.,false
4,2,pera,Bas velika kap,1.1.2017.,null,false
3,3,pera,Los klovn,1.1.2017.,null,false
4,6,korisnik1,Fino receno,1.1.2017.,null,false
6,11,zare,Komentarisem objavu javnog profila,26.12.2021.,null,false
7,10,joka,sta priicaaaaas ti,4.2.2022.,null,false
