1,1,zare,Jedan komentar,2.1.2017.,null,true
2,1,korisnik,Drugi komentar,2.1.2017.,null,false
6,1,zare,Dodajem novi komentar,4.1.2021.,null,false
4,2,zare,Stvarno svaka cast!,2.1.2017.,null,false
5,4,zare,Bravo!,2.1.2017.,null,false
3,5,korisnik1,Test komentara,2.1.2017.,null,false
7,9,pera,kako preslatka panda,3.1.2022.,null,false
8,9,pera,da li je prodajes?,3.1.2022.,null,false
9,9,korisnik,odakle mu panda brt jesi li normalan,4.2.2022.,null,true
10,9,korisnik,Ocu i ja jednu al mislim da je ne prodaje brt odakle mu panda...,4.2.2022.,null,false
