pera,pera,pera@yahoo.com,Pera,Peric,2.1.1995.,MUSKO,KORISNIK,../slike/slika6.jpg,true,true
korisnik1,mica,kor@gmail.com,Milica,Milovanovic,2.1.1995.,ZENSKO,KORISNIK,../slike/profilna.jpg,false,true
zare,asd,matijazaric9@gmail.com,Matija,Zaric,18.08.2000.,MUSKO,KORISNIK,../slike/slika7.jpg,false,true
korisnik2,sifra2,pera1gmail.com,Pera,Markovic,2.1.1995.,MUSKO,KORISNIK,../slike/profilna.jpg,true,true
admin,admin,admin@gmail.com,Dimitrije,Dimitrijevic,2.1.1995.,MUSKO,ADMINISTRATOR,../slike/profilna.jpg,false,true
joka,joka,joka@mejl.com,Joka,Jokic,2.1.1995.,MUSKO,KORISNIK,../slike/slika3.jpg,true,true
korisnik,sifra,korisnik@gmail.com,Jovana,Jovanovic,2.1.1995.,ZENSKO,KORISNIK,../slike/profilna.jpg,false,true
