1,zare,../slike/slika3.jpg,Jedna vrlo lepa pandica,false
2,zare,../slike/slika5.jpg,Jos jedna objava,false
3,zare,../slike/slika1.jpg,Jako sladak klovn na slici,false
4,zare,../slike/slika6.jpg,Patak se cudi,false
5,zare,../slike/profilna.png,Bas dobro crtam,false
6,zare,,Jedna objava sa samo tekstom bez slike i sa malo vise teksta da se vidi prelamanje!,false
7,pera,,Kako je danas lep dan!Pozdrav svima!,false
8,pera,,Jos jedna objava bez slike!,false
9,pera,../slike/slika3.jpg,Opis uz sliku,false
10,zare,,Postavljam objavu sa malo vise teksta da izrazim svoje nezadovoljstvo danasnjom svesti ljudi!,false
11,joka,../slike/slika1.jpg,tekst uz objavu,false
